(kicad_sch (version 20211123) (generator eeschema)

  (uuid 534df9e0-ac73-41ca-99ae-0107e336d72f)

  (paper "A4")

  (lib_symbols
    (symbol "Connector:USB_A" (pin_names (offset 1.016)) (in_bom yes) (on_board yes)
      (property "Reference" "J" (id 0) (at -5.08 11.43 0)
        (effects (font (size 1.27 1.27)) (justify left))
      )
      (property "Value" "USB_A" (id 1) (at -5.08 8.89 0)
        (effects (font (size 1.27 1.27)) (justify left))
      )
      (property "Footprint" "" (id 2) (at 3.81 -1.27 0)
        (effects (font (size 1.27 1.27)) hide)
      )
      (property "Datasheet" " ~" (id 3) (at 3.81 -1.27 0)
        (effects (font (size 1.27 1.27)) hide)
      )
      (property "ki_keywords" "connector USB" (id 4) (at 0 0 0)
        (effects (font (size 1.27 1.27)) hide)
      )
      (property "ki_description" "USB Type A connector" (id 5) (at 0 0 0)
        (effects (font (size 1.27 1.27)) hide)
      )
      (property "ki_fp_filters" "USB*" (id 6) (at 0 0 0)
        (effects (font (size 1.27 1.27)) hide)
      )
      (symbol "USB_A_0_1"
        (rectangle (start -5.08 -7.62) (end 5.08 7.62)
          (stroke (width 0.254) (type default) (color 0 0 0 0))
          (fill (type background))
        )
        (circle (center -3.81 2.159) (radius 0.635)
          (stroke (width 0.254) (type default) (color 0 0 0 0))
          (fill (type outline))
        )
        (rectangle (start -1.524 4.826) (end -4.318 5.334)
          (stroke (width 0) (type default) (color 0 0 0 0))
          (fill (type outline))
        )
        (rectangle (start -1.27 4.572) (end -4.572 5.842)
          (stroke (width 0) (type default) (color 0 0 0 0))
          (fill (type none))
        )
        (circle (center -0.635 3.429) (radius 0.381)
          (stroke (width 0.254) (type default) (color 0 0 0 0))
          (fill (type outline))
        )
        (rectangle (start -0.127 -7.62) (end 0.127 -6.858)
          (stroke (width 0) (type default) (color 0 0 0 0))
          (fill (type none))
        )
        (polyline
          (pts
            (xy -3.175 2.159)
            (xy -2.54 2.159)
            (xy -1.27 3.429)
            (xy -0.635 3.429)
          )
          (stroke (width 0.254) (type default) (color 0 0 0 0))
          (fill (type none))
        )
        (polyline
          (pts
            (xy -2.54 2.159)
            (xy -1.905 2.159)
            (xy -1.27 0.889)
            (xy 0 0.889)
          )
          (stroke (width 0.254) (type default) (color 0 0 0 0))
          (fill (type none))
        )
        (polyline
          (pts
            (xy 0.635 2.794)
            (xy 0.635 1.524)
            (xy 1.905 2.159)
            (xy 0.635 2.794)
          )
          (stroke (width 0.254) (type default) (color 0 0 0 0))
          (fill (type outline))
        )
        (rectangle (start 0.254 1.27) (end -0.508 0.508)
          (stroke (width 0.254) (type default) (color 0 0 0 0))
          (fill (type outline))
        )
        (rectangle (start 5.08 -2.667) (end 4.318 -2.413)
          (stroke (width 0) (type default) (color 0 0 0 0))
          (fill (type none))
        )
        (rectangle (start 5.08 -0.127) (end 4.318 0.127)
          (stroke (width 0) (type default) (color 0 0 0 0))
          (fill (type none))
        )
        (rectangle (start 5.08 4.953) (end 4.318 5.207)
          (stroke (width 0) (type default) (color 0 0 0 0))
          (fill (type none))
        )
      )
      (symbol "USB_A_1_1"
        (polyline
          (pts
            (xy -1.905 2.159)
            (xy 0.635 2.159)
          )
          (stroke (width 0.254) (type default) (color 0 0 0 0))
          (fill (type none))
        )
        (pin power_in line (at 7.62 5.08 180) (length 2.54)
          (name "VBUS" (effects (font (size 1.27 1.27))))
          (number "1" (effects (font (size 1.27 1.27))))
        )
        (pin bidirectional line (at 7.62 -2.54 180) (length 2.54)
          (name "D-" (effects (font (size 1.27 1.27))))
          (number "2" (effects (font (size 1.27 1.27))))
        )
        (pin bidirectional line (at 7.62 0 180) (length 2.54)
          (name "D+" (effects (font (size 1.27 1.27))))
          (number "3" (effects (font (size 1.27 1.27))))
        )
        (pin power_in line (at 0 -10.16 90) (length 2.54)
          (name "GND" (effects (font (size 1.27 1.27))))
          (number "4" (effects (font (size 1.27 1.27))))
        )
        (pin passive line (at -2.54 -10.16 90) (length 2.54)
          (name "Shield" (effects (font (size 1.27 1.27))))
          (number "5" (effects (font (size 1.27 1.27))))
        )
      )
    )
    (symbol "Connector:USB_B" (pin_names (offset 1.016)) (in_bom yes) (on_board yes)
      (property "Reference" "J" (id 0) (at -5.08 11.43 0)
        (effects (font (size 1.27 1.27)) (justify left))
      )
      (property "Value" "USB_B" (id 1) (at -5.08 8.89 0)
        (effects (font (size 1.27 1.27)) (justify left))
      )
      (property "Footprint" "" (id 2) (at 3.81 -1.27 0)
        (effects (font (size 1.27 1.27)) hide)
      )
      (property "Datasheet" " ~" (id 3) (at 3.81 -1.27 0)
        (effects (font (size 1.27 1.27)) hide)
      )
      (property "ki_keywords" "connector USB" (id 4) (at 0 0 0)
        (effects (font (size 1.27 1.27)) hide)
      )
      (property "ki_description" "USB Type B connector" (id 5) (at 0 0 0)
        (effects (font (size 1.27 1.27)) hide)
      )
      (property "ki_fp_filters" "USB*" (id 6) (at 0 0 0)
        (effects (font (size 1.27 1.27)) hide)
      )
      (symbol "USB_B_0_1"
        (rectangle (start -5.08 -7.62) (end 5.08 7.62)
          (stroke (width 0.254) (type default) (color 0 0 0 0))
          (fill (type background))
        )
        (circle (center -3.81 2.159) (radius 0.635)
          (stroke (width 0.254) (type default) (color 0 0 0 0))
          (fill (type outline))
        )
        (rectangle (start -3.81 5.588) (end -2.54 4.572)
          (stroke (width 0) (type default) (color 0 0 0 0))
          (fill (type outline))
        )
        (circle (center -0.635 3.429) (radius 0.381)
          (stroke (width 0.254) (type default) (color 0 0 0 0))
          (fill (type outline))
        )
        (rectangle (start -0.127 -7.62) (end 0.127 -6.858)
          (stroke (width 0) (type default) (color 0 0 0 0))
          (fill (type none))
        )
        (polyline
          (pts
            (xy -1.905 2.159)
            (xy 0.635 2.159)
          )
          (stroke (width 0.254) (type default) (color 0 0 0 0))
          (fill (type none))
        )
        (polyline
          (pts
            (xy -3.175 2.159)
            (xy -2.54 2.159)
            (xy -1.27 3.429)
            (xy -0.635 3.429)
          )
          (stroke (width 0.254) (type default) (color 0 0 0 0))
          (fill (type none))
        )
        (polyline
          (pts
            (xy -2.54 2.159)
            (xy -1.905 2.159)
            (xy -1.27 0.889)
            (xy 0 0.889)
          )
          (stroke (width 0.254) (type default) (color 0 0 0 0))
          (fill (type none))
        )
        (polyline
          (pts
            (xy 0.635 2.794)
            (xy 0.635 1.524)
            (xy 1.905 2.159)
            (xy 0.635 2.794)
          )
          (stroke (width 0.254) (type default) (color 0 0 0 0))
          (fill (type outline))
        )
        (polyline
          (pts
            (xy -4.064 4.318)
            (xy -2.286 4.318)
            (xy -2.286 5.715)
            (xy -2.667 6.096)
            (xy -3.683 6.096)
            (xy -4.064 5.715)
            (xy -4.064 4.318)
          )
          (stroke (width 0) (type default) (color 0 0 0 0))
          (fill (type none))
        )
        (rectangle (start 0.254 1.27) (end -0.508 0.508)
          (stroke (width 0.254) (type default) (color 0 0 0 0))
          (fill (type outline))
        )
        (rectangle (start 5.08 -2.667) (end 4.318 -2.413)
          (stroke (width 0) (type default) (color 0 0 0 0))
          (fill (type none))
        )
        (rectangle (start 5.08 -0.127) (end 4.318 0.127)
          (stroke (width 0) (type default) (color 0 0 0 0))
          (fill (type none))
        )
        (rectangle (start 5.08 4.953) (end 4.318 5.207)
          (stroke (width 0) (type default) (color 0 0 0 0))
          (fill (type none))
        )
      )
      (symbol "USB_B_1_1"
        (pin power_out line (at 7.62 5.08 180) (length 2.54)
          (name "VBUS" (effects (font (size 1.27 1.27))))
          (number "1" (effects (font (size 1.27 1.27))))
        )
        (pin bidirectional line (at 7.62 -2.54 180) (length 2.54)
          (name "D-" (effects (font (size 1.27 1.27))))
          (number "2" (effects (font (size 1.27 1.27))))
        )
        (pin bidirectional line (at 7.62 0 180) (length 2.54)
          (name "D+" (effects (font (size 1.27 1.27))))
          (number "3" (effects (font (size 1.27 1.27))))
        )
        (pin power_out line (at 0 -10.16 90) (length 2.54)
          (name "GND" (effects (font (size 1.27 1.27))))
          (number "4" (effects (font (size 1.27 1.27))))
        )
        (pin passive line (at -2.54 -10.16 90) (length 2.54)
          (name "Shield" (effects (font (size 1.27 1.27))))
          (number "5" (effects (font (size 1.27 1.27))))
        )
      )
    )
    (symbol "Connector_Generic:Conn_01x02" (pin_names (offset 1.016) hide) (in_bom yes) (on_board yes)
      (property "Reference" "J" (id 0) (at 0 2.54 0)
        (effects (font (size 1.27 1.27)))
      )
      (property "Value" "Conn_01x02" (id 1) (at 0 -5.08 0)
        (effects (font (size 1.27 1.27)))
      )
      (property "Footprint" "" (id 2) (at 0 0 0)
        (effects (font (size 1.27 1.27)) hide)
      )
      (property "Datasheet" "~" (id 3) (at 0 0 0)
        (effects (font (size 1.27 1.27)) hide)
      )
      (property "ki_keywords" "connector" (id 4) (at 0 0 0)
        (effects (font (size 1.27 1.27)) hide)
      )
      (property "ki_description" "Generic connector, single row, 01x02, script generated (kicad-library-utils/schlib/autogen/connector/)" (id 5) (at 0 0 0)
        (effects (font (size 1.27 1.27)) hide)
      )
      (property "ki_fp_filters" "Connector*:*_1x??_*" (id 6) (at 0 0 0)
        (effects (font (size 1.27 1.27)) hide)
      )
      (symbol "Conn_01x02_1_1"
        (rectangle (start -1.27 -2.413) (end 0 -2.667)
          (stroke (width 0.1524) (type default) (color 0 0 0 0))
          (fill (type none))
        )
        (rectangle (start -1.27 0.127) (end 0 -0.127)
          (stroke (width 0.1524) (type default) (color 0 0 0 0))
          (fill (type none))
        )
        (rectangle (start -1.27 1.27) (end 1.27 -3.81)
          (stroke (width 0.254) (type default) (color 0 0 0 0))
          (fill (type background))
        )
        (pin passive line (at -5.08 0 0) (length 3.81)
          (name "Pin_1" (effects (font (size 1.27 1.27))))
          (number "1" (effects (font (size 1.27 1.27))))
        )
        (pin passive line (at -5.08 -2.54 0) (length 3.81)
          (name "Pin_2" (effects (font (size 1.27 1.27))))
          (number "2" (effects (font (size 1.27 1.27))))
        )
      )
    )
    (symbol "Connector_Generic:Conn_02x05_Odd_Even" (pin_names (offset 1.016) hide) (in_bom yes) (on_board yes)
      (property "Reference" "J" (id 0) (at 1.27 7.62 0)
        (effects (font (size 1.27 1.27)))
      )
      (property "Value" "Conn_02x05_Odd_Even" (id 1) (at 1.27 -7.62 0)
        (effects (font (size 1.27 1.27)))
      )
      (property "Footprint" "" (id 2) (at 0 0 0)
        (effects (font (size 1.27 1.27)) hide)
      )
      (property "Datasheet" "~" (id 3) (at 0 0 0)
        (effects (font (size 1.27 1.27)) hide)
      )
      (property "ki_keywords" "connector" (id 4) (at 0 0 0)
        (effects (font (size 1.27 1.27)) hide)
      )
      (property "ki_description" "Generic connector, double row, 02x05, odd/even pin numbering scheme (row 1 odd numbers, row 2 even numbers), script generated (kicad-library-utils/schlib/autogen/connector/)" (id 5) (at 0 0 0)
        (effects (font (size 1.27 1.27)) hide)
      )
      (property "ki_fp_filters" "Connector*:*_2x??_*" (id 6) (at 0 0 0)
        (effects (font (size 1.27 1.27)) hide)
      )
      (symbol "Conn_02x05_Odd_Even_1_1"
        (rectangle (start -1.27 -4.953) (end 0 -5.207)
          (stroke (width 0.1524) (type default) (color 0 0 0 0))
          (fill (type none))
        )
        (rectangle (start -1.27 -2.413) (end 0 -2.667)
          (stroke (width 0.1524) (type default) (color 0 0 0 0))
          (fill (type none))
        )
        (rectangle (start -1.27 0.127) (end 0 -0.127)
          (stroke (width 0.1524) (type default) (color 0 0 0 0))
          (fill (type none))
        )
        (rectangle (start -1.27 2.667) (end 0 2.413)
          (stroke (width 0.1524) (type default) (color 0 0 0 0))
          (fill (type none))
        )
        (rectangle (start -1.27 5.207) (end 0 4.953)
          (stroke (width 0.1524) (type default) (color 0 0 0 0))
          (fill (type none))
        )
        (rectangle (start -1.27 6.35) (end 3.81 -6.35)
          (stroke (width 0.254) (type default) (color 0 0 0 0))
          (fill (type background))
        )
        (rectangle (start 3.81 -4.953) (end 2.54 -5.207)
          (stroke (width 0.1524) (type default) (color 0 0 0 0))
          (fill (type none))
        )
        (rectangle (start 3.81 -2.413) (end 2.54 -2.667)
          (stroke (width 0.1524) (type default) (color 0 0 0 0))
          (fill (type none))
        )
        (rectangle (start 3.81 0.127) (end 2.54 -0.127)
          (stroke (width 0.1524) (type default) (color 0 0 0 0))
          (fill (type none))
        )
        (rectangle (start 3.81 2.667) (end 2.54 2.413)
          (stroke (width 0.1524) (type default) (color 0 0 0 0))
          (fill (type none))
        )
        (rectangle (start 3.81 5.207) (end 2.54 4.953)
          (stroke (width 0.1524) (type default) (color 0 0 0 0))
          (fill (type none))
        )
        (pin passive line (at -5.08 5.08 0) (length 3.81)
          (name "Pin_1" (effects (font (size 1.27 1.27))))
          (number "1" (effects (font (size 1.27 1.27))))
        )
        (pin passive line (at 7.62 -5.08 180) (length 3.81)
          (name "Pin_10" (effects (font (size 1.27 1.27))))
          (number "10" (effects (font (size 1.27 1.27))))
        )
        (pin passive line (at 7.62 5.08 180) (length 3.81)
          (name "Pin_2" (effects (font (size 1.27 1.27))))
          (number "2" (effects (font (size 1.27 1.27))))
        )
        (pin passive line (at -5.08 2.54 0) (length 3.81)
          (name "Pin_3" (effects (font (size 1.27 1.27))))
          (number "3" (effects (font (size 1.27 1.27))))
        )
        (pin passive line (at 7.62 2.54 180) (length 3.81)
          (name "Pin_4" (effects (font (size 1.27 1.27))))
          (number "4" (effects (font (size 1.27 1.27))))
        )
        (pin passive line (at -5.08 0 0) (length 3.81)
          (name "Pin_5" (effects (font (size 1.27 1.27))))
          (number "5" (effects (font (size 1.27 1.27))))
        )
        (pin passive line (at 7.62 0 180) (length 3.81)
          (name "Pin_6" (effects (font (size 1.27 1.27))))
          (number "6" (effects (font (size 1.27 1.27))))
        )
        (pin passive line (at -5.08 -2.54 0) (length 3.81)
          (name "Pin_7" (effects (font (size 1.27 1.27))))
          (number "7" (effects (font (size 1.27 1.27))))
        )
        (pin passive line (at 7.62 -2.54 180) (length 3.81)
          (name "Pin_8" (effects (font (size 1.27 1.27))))
          (number "8" (effects (font (size 1.27 1.27))))
        )
        (pin passive line (at -5.08 -5.08 0) (length 3.81)
          (name "Pin_9" (effects (font (size 1.27 1.27))))
          (number "9" (effects (font (size 1.27 1.27))))
        )
      )
    )
  )


  (wire (pts (xy 139.7 52.07) (xy 171.45 52.07))
    (stroke (width 0) (type default) (color 0 0 0 0))
    (uuid 01b0017a-a1e9-4eaa-bc78-ed6fc5c47af1)
  )
  (wire (pts (xy 137.16 118.11) (xy 146.05 118.11))
    (stroke (width 0) (type default) (color 0 0 0 0))
    (uuid 01bb91b8-e316-480c-bc96-6c38f994b1bf)
  )
  (wire (pts (xy 135.89 74.93) (xy 139.7 74.93))
    (stroke (width 0) (type default) (color 0 0 0 0))
    (uuid 04561be0-3532-4436-bba6-d1d75963d476)
  )
  (wire (pts (xy 72.39 72.39) (xy 77.47 72.39))
    (stroke (width 0) (type default) (color 0 0 0 0))
    (uuid 09910130-ad35-4070-aea9-6f8d9e308485)
  )
  (wire (pts (xy 118.11 110.49) (xy 118.11 109.22))
    (stroke (width 0) (type default) (color 0 0 0 0))
    (uuid 0ba03cba-1fc3-466f-afb3-38411a67fec6)
  )
  (wire (pts (xy 163.83 73.66) (xy 171.45 73.66))
    (stroke (width 0) (type default) (color 0 0 0 0))
    (uuid 0cadbb58-57ff-431d-89a6-4830a4307b10)
  )
  (wire (pts (xy 156.21 86.36) (xy 156.21 83.82))
    (stroke (width 0) (type default) (color 0 0 0 0))
    (uuid 0fdaa610-dbe8-4a44-a58e-aa180adca12b)
  )
  (wire (pts (xy 114.3 73.66) (xy 114.3 74.93))
    (stroke (width 0) (type default) (color 0 0 0 0))
    (uuid 140087b8-fccc-468c-b1d9-b7df1a0e3329)
  )
  (wire (pts (xy 116.84 76.2) (xy 116.84 72.39))
    (stroke (width 0) (type default) (color 0 0 0 0))
    (uuid 17b64144-af0e-4790-9383-dae54bef58ec)
  )
  (wire (pts (xy 123.19 80.01) (xy 119.38 80.01))
    (stroke (width 0) (type default) (color 0 0 0 0))
    (uuid 1ec11ffd-8a0c-4f75-86ca-c40cbd3d24e8)
  )
  (wire (pts (xy 165.1 116.84) (xy 168.91 116.84))
    (stroke (width 0) (type default) (color 0 0 0 0))
    (uuid 23568479-fa77-4c04-9719-bd2893a8819a)
  )
  (wire (pts (xy 118.11 109.22) (xy 113.03 109.22))
    (stroke (width 0) (type default) (color 0 0 0 0))
    (uuid 239b59fd-a411-46e5-b38c-4025737d784b)
  )
  (wire (pts (xy 163.83 76.2) (xy 167.64 76.2))
    (stroke (width 0) (type default) (color 0 0 0 0))
    (uuid 24c7e2e4-a397-41c3-8864-d088babc3e5e)
  )
  (wire (pts (xy 113.03 116.84) (xy 118.11 116.84))
    (stroke (width 0) (type default) (color 0 0 0 0))
    (uuid 268b8053-3773-41fa-bc2a-903e8c109f3a)
  )
  (wire (pts (xy 119.38 80.01) (xy 119.38 86.36))
    (stroke (width 0) (type default) (color 0 0 0 0))
    (uuid 26fa7976-888a-4667-97ed-25d02dc3cb33)
  )
  (wire (pts (xy 142.24 83.82) (xy 142.24 80.01))
    (stroke (width 0) (type default) (color 0 0 0 0))
    (uuid 298eb0bc-cddc-4896-b634-419e0b440dda)
  )
  (wire (pts (xy 144.78 77.47) (xy 144.78 86.36))
    (stroke (width 0) (type default) (color 0 0 0 0))
    (uuid 29ba8ff2-4679-48fc-b771-ccff64207740)
  )
  (wire (pts (xy 116.84 68.58) (xy 111.76 68.58))
    (stroke (width 0) (type default) (color 0 0 0 0))
    (uuid 2ab41a15-956e-4f37-935a-73725f877bad)
  )
  (wire (pts (xy 69.85 115.57) (xy 76.2 115.57))
    (stroke (width 0) (type default) (color 0 0 0 0))
    (uuid 2d0087f0-73e8-45c5-9581-5e75c3c4ece9)
  )
  (wire (pts (xy 168.91 95.25) (xy 168.91 116.84))
    (stroke (width 0) (type default) (color 0 0 0 0))
    (uuid 32599648-1190-474a-9f79-0905743ecf78)
  )
  (wire (pts (xy 140.97 92.71) (xy 172.72 92.71))
    (stroke (width 0) (type default) (color 0 0 0 0))
    (uuid 3790bf63-7ed7-4d19-bc13-f05077037763)
  )
  (wire (pts (xy 143.51 95.25) (xy 168.91 95.25))
    (stroke (width 0) (type default) (color 0 0 0 0))
    (uuid 3851d1cd-341c-49dd-b55a-b9d47d1ad24a)
  )
  (wire (pts (xy 120.65 120.65) (xy 120.65 127))
    (stroke (width 0) (type default) (color 0 0 0 0))
    (uuid 39e91787-215a-43d5-9593-bc0a49d56ead)
  )
  (wire (pts (xy 157.48 127) (xy 157.48 124.46))
    (stroke (width 0) (type default) (color 0 0 0 0))
    (uuid 3d56e0d9-a607-47c4-90b3-019240edd8eb)
  )
  (wire (pts (xy 143.51 120.65) (xy 137.16 120.65))
    (stroke (width 0) (type default) (color 0 0 0 0))
    (uuid 3dda777b-127e-4165-8bfb-bd830aee083f)
  )
  (wire (pts (xy 118.11 118.11) (xy 118.11 124.46))
    (stroke (width 0) (type default) (color 0 0 0 0))
    (uuid 3ed5a078-0407-49d0-b172-3bd14b96c07b)
  )
  (wire (pts (xy 144.78 57.15) (xy 163.83 57.15))
    (stroke (width 0) (type default) (color 0 0 0 0))
    (uuid 49b56d61-0548-4273-95d2-5a1b51dab6f0)
  )
  (wire (pts (xy 101.6 86.36) (xy 101.6 83.82))
    (stroke (width 0) (type default) (color 0 0 0 0))
    (uuid 4ac1ec95-ddf0-4675-872b-a95d83687274)
  )
  (wire (pts (xy 139.7 74.93) (xy 139.7 52.07))
    (stroke (width 0) (type default) (color 0 0 0 0))
    (uuid 4d29b857-f652-47b7-99e8-755e07e3d5c5)
  )
  (wire (pts (xy 146.05 127) (xy 157.48 127))
    (stroke (width 0) (type default) (color 0 0 0 0))
    (uuid 50fead49-943e-49ef-a3e2-40d0a48ad504)
  )
  (wire (pts (xy 115.57 114.3) (xy 115.57 115.57))
    (stroke (width 0) (type default) (color 0 0 0 0))
    (uuid 5418e858-a46e-4f98-af9a-2143e4a10f93)
  )
  (wire (pts (xy 119.38 86.36) (xy 101.6 86.36))
    (stroke (width 0) (type default) (color 0 0 0 0))
    (uuid 546a0e72-860b-4647-b3c5-bea6eda7c19b)
  )
  (wire (pts (xy 142.24 54.61) (xy 167.64 54.61))
    (stroke (width 0) (type default) (color 0 0 0 0))
    (uuid 56658aa0-27cb-4ba3-8e4e-203e827b2784)
  )
  (wire (pts (xy 118.11 113.03) (xy 124.46 113.03))
    (stroke (width 0) (type default) (color 0 0 0 0))
    (uuid 5929c356-ca28-4e4e-9b01-d428254fe858)
  )
  (wire (pts (xy 116.84 77.47) (xy 116.84 83.82))
    (stroke (width 0) (type default) (color 0 0 0 0))
    (uuid 5bb26592-4a08-4429-9f9e-ba9ede464169)
  )
  (wire (pts (xy 116.84 69.85) (xy 116.84 68.58))
    (stroke (width 0) (type default) (color 0 0 0 0))
    (uuid 5cd96177-50ad-459e-aaa2-41a20e8dd0f8)
  )
  (wire (pts (xy 135.89 77.47) (xy 144.78 77.47))
    (stroke (width 0) (type default) (color 0 0 0 0))
    (uuid 5f60a220-5410-4c34-9595-9197166c2cb2)
  )
  (wire (pts (xy 171.45 52.07) (xy 171.45 73.66))
    (stroke (width 0) (type default) (color 0 0 0 0))
    (uuid 663b595b-0fc3-4661-b0d3-0d857ad89a5c)
  )
  (wire (pts (xy 143.51 124.46) (xy 143.51 120.65))
    (stroke (width 0) (type default) (color 0 0 0 0))
    (uuid 66bf981d-093d-426d-8919-883d30232d1f)
  )
  (wire (pts (xy 144.78 69.85) (xy 144.78 57.15))
    (stroke (width 0) (type default) (color 0 0 0 0))
    (uuid 6ffd28d0-d52a-4029-9cce-a7432963be7e)
  )
  (wire (pts (xy 137.16 115.57) (xy 140.97 115.57))
    (stroke (width 0) (type default) (color 0 0 0 0))
    (uuid 7001c605-76ec-4e25-8977-c69ae53bf05f)
  )
  (wire (pts (xy 154.94 124.46) (xy 143.51 124.46))
    (stroke (width 0) (type default) (color 0 0 0 0))
    (uuid 71589254-4622-475c-824f-e8b38f8f78e3)
  )
  (wire (pts (xy 113.03 114.3) (xy 115.57 114.3))
    (stroke (width 0) (type default) (color 0 0 0 0))
    (uuid 7359850a-6c95-443c-82a2-04e777717015)
  )
  (wire (pts (xy 137.16 110.49) (xy 146.05 110.49))
    (stroke (width 0) (type default) (color 0 0 0 0))
    (uuid 7c801f62-dc3e-4f6f-b79e-b45f66c333a5)
  )
  (wire (pts (xy 118.11 110.49) (xy 124.46 110.49))
    (stroke (width 0) (type default) (color 0 0 0 0))
    (uuid 7d73a219-977a-4db5-bed2-9640b0c9c5ed)
  )
  (wire (pts (xy 118.11 124.46) (xy 105.41 124.46))
    (stroke (width 0) (type default) (color 0 0 0 0))
    (uuid 7ff4beb7-daf1-46f9-80ae-1cb79e4accfe)
  )
  (wire (pts (xy 116.84 72.39) (xy 123.19 72.39))
    (stroke (width 0) (type default) (color 0 0 0 0))
    (uuid 87f3eef0-6136-4652-a542-fa31b517a5a9)
  )
  (wire (pts (xy 72.39 74.93) (xy 77.47 74.93))
    (stroke (width 0) (type default) (color 0 0 0 0))
    (uuid 8942e6d2-3010-4fc5-b9ae-fd25fa7f1397)
  )
  (wire (pts (xy 143.51 113.03) (xy 143.51 95.25))
    (stroke (width 0) (type default) (color 0 0 0 0))
    (uuid 89851139-957f-4670-9a07-9426a59e16dc)
  )
  (wire (pts (xy 137.16 113.03) (xy 143.51 113.03))
    (stroke (width 0) (type default) (color 0 0 0 0))
    (uuid 8b624700-f0e2-4754-9452-bdc49d4f3486)
  )
  (wire (pts (xy 135.89 69.85) (xy 144.78 69.85))
    (stroke (width 0) (type default) (color 0 0 0 0))
    (uuid 939b14bf-9fbf-4599-a8e9-8b29b0253c3e)
  )
  (wire (pts (xy 69.85 113.03) (xy 76.2 113.03))
    (stroke (width 0) (type default) (color 0 0 0 0))
    (uuid 9ab5c3a8-c161-4d95-b5c9-1d080745dfc5)
  )
  (wire (pts (xy 124.46 120.65) (xy 120.65 120.65))
    (stroke (width 0) (type default) (color 0 0 0 0))
    (uuid 9c4887a5-0caf-4a14-b0bf-55959dc68cc0)
  )
  (wire (pts (xy 116.84 83.82) (xy 104.14 83.82))
    (stroke (width 0) (type default) (color 0 0 0 0))
    (uuid 9d1c6ad3-1807-4897-b352-0f63ca04ae16)
  )
  (wire (pts (xy 172.72 92.71) (xy 172.72 114.3))
    (stroke (width 0) (type default) (color 0 0 0 0))
    (uuid a101e2d4-2e26-4e54-ab2f-445fc78e8242)
  )
  (wire (pts (xy 123.19 77.47) (xy 116.84 77.47))
    (stroke (width 0) (type default) (color 0 0 0 0))
    (uuid a80f6434-0509-4516-bb35-28e44951f57d)
  )
  (wire (pts (xy 165.1 114.3) (xy 172.72 114.3))
    (stroke (width 0) (type default) (color 0 0 0 0))
    (uuid a8272287-088f-4a8f-8665-ae1e5d097c54)
  )
  (wire (pts (xy 144.78 86.36) (xy 156.21 86.36))
    (stroke (width 0) (type default) (color 0 0 0 0))
    (uuid ab8a89db-53be-4f2e-8cc6-424724ce5b14)
  )
  (wire (pts (xy 163.83 57.15) (xy 163.83 68.58))
    (stroke (width 0) (type default) (color 0 0 0 0))
    (uuid afe67bc9-86c4-430d-b448-efcbeb54ea33)
  )
  (wire (pts (xy 146.05 110.49) (xy 146.05 97.79))
    (stroke (width 0) (type default) (color 0 0 0 0))
    (uuid b0232ca8-4f53-41cc-8872-5e64c1d99228)
  )
  (wire (pts (xy 111.76 76.2) (xy 116.84 76.2))
    (stroke (width 0) (type default) (color 0 0 0 0))
    (uuid b298fd39-6a27-4039-8d46-2551efffa52a)
  )
  (wire (pts (xy 111.76 73.66) (xy 114.3 73.66))
    (stroke (width 0) (type default) (color 0 0 0 0))
    (uuid b420a231-d789-40c9-8bfe-bef62ed11379)
  )
  (wire (pts (xy 165.1 97.79) (xy 165.1 109.22))
    (stroke (width 0) (type default) (color 0 0 0 0))
    (uuid ba6e04af-aa8f-4db5-900c-f79287114964)
  )
  (wire (pts (xy 102.87 127) (xy 102.87 124.46))
    (stroke (width 0) (type default) (color 0 0 0 0))
    (uuid bbe20ac3-56c6-492d-bee5-fbb17b6598be)
  )
  (wire (pts (xy 142.24 80.01) (xy 135.89 80.01))
    (stroke (width 0) (type default) (color 0 0 0 0))
    (uuid bc024aca-0b0f-4d88-b53d-bcc48cc105ed)
  )
  (wire (pts (xy 116.84 69.85) (xy 123.19 69.85))
    (stroke (width 0) (type default) (color 0 0 0 0))
    (uuid bd032992-ac61-4675-980c-42bd1b7c4e53)
  )
  (wire (pts (xy 153.67 83.82) (xy 142.24 83.82))
    (stroke (width 0) (type default) (color 0 0 0 0))
    (uuid ca8d4152-518f-4b70-9fa9-c8bd2e992ee5)
  )
  (wire (pts (xy 140.97 115.57) (xy 140.97 92.71))
    (stroke (width 0) (type default) (color 0 0 0 0))
    (uuid cb957fd0-2785-41ea-8af1-4b64d75a0382)
  )
  (wire (pts (xy 146.05 97.79) (xy 165.1 97.79))
    (stroke (width 0) (type default) (color 0 0 0 0))
    (uuid d197f732-3ff6-42b3-a09a-02c1e8ff1c98)
  )
  (wire (pts (xy 120.65 127) (xy 102.87 127))
    (stroke (width 0) (type default) (color 0 0 0 0))
    (uuid d8fa9402-baed-48f9-83e9-dfa9f962bb51)
  )
  (wire (pts (xy 124.46 118.11) (xy 118.11 118.11))
    (stroke (width 0) (type default) (color 0 0 0 0))
    (uuid da729eca-f48a-42c3-8528-534467844f92)
  )
  (wire (pts (xy 167.64 54.61) (xy 167.64 76.2))
    (stroke (width 0) (type default) (color 0 0 0 0))
    (uuid de58953b-b484-4ba6-ac01-cfa4048747fd)
  )
  (wire (pts (xy 115.57 115.57) (xy 124.46 115.57))
    (stroke (width 0) (type default) (color 0 0 0 0))
    (uuid e4f7abaf-56ee-42b0-a810-2b6a75946480)
  )
  (wire (pts (xy 118.11 116.84) (xy 118.11 113.03))
    (stroke (width 0) (type default) (color 0 0 0 0))
    (uuid ee85a4c0-5a97-4369-aec3-f9ce8cce9c02)
  )
  (wire (pts (xy 135.89 72.39) (xy 142.24 72.39))
    (stroke (width 0) (type default) (color 0 0 0 0))
    (uuid f1365bf2-415a-424f-98fa-3091894ce376)
  )
  (wire (pts (xy 146.05 118.11) (xy 146.05 127))
    (stroke (width 0) (type default) (color 0 0 0 0))
    (uuid f8106369-53d1-4f58-aa16-ee3cfb08cf42)
  )
  (wire (pts (xy 114.3 74.93) (xy 123.19 74.93))
    (stroke (width 0) (type default) (color 0 0 0 0))
    (uuid f89ce7cf-c86b-45ee-9456-20cd253c75c8)
  )
  (wire (pts (xy 142.24 72.39) (xy 142.24 54.61))
    (stroke (width 0) (type default) (color 0 0 0 0))
    (uuid f9e38f25-5fc3-445d-b4bb-4b2fb01e816a)
  )

  (label "D+2" (at 72.39 113.03 0)
    (effects (font (size 1.27 1.27)) (justify left bottom))
    (uuid 179a16fc-d529-4aaf-8d2c-eb40564d8e08)
  )
  (label "D+1" (at 119.38 74.93 0)
    (effects (font (size 1.27 1.27)) (justify left bottom))
    (uuid 2e240ffc-6026-4108-b53a-8329fc3815d0)
  )
  (label "D+1" (at 73.66 74.93 0)
    (effects (font (size 1.27 1.27)) (justify left bottom))
    (uuid 35b4a0b4-0d37-4d13-8c0d-c4b151f98f99)
  )
  (label "D-2" (at 120.65 113.03 0)
    (effects (font (size 1.27 1.27)) (justify left bottom))
    (uuid 37c78681-1dfa-4251-b3ff-681205ccdbfe)
  )
  (label "D-1" (at 73.66 72.39 0)
    (effects (font (size 1.27 1.27)) (justify left bottom))
    (uuid 40fbdc22-383a-4a19-8149-84d5445beb60)
  )
  (label "D-2" (at 72.39 115.57 0)
    (effects (font (size 1.27 1.27)) (justify left bottom))
    (uuid 7cdc918e-a178-4988-809c-d2523d2efd47)
  )
  (label "D+2" (at 120.65 115.57 0)
    (effects (font (size 1.27 1.27)) (justify left bottom))
    (uuid 8ff61900-f876-4d65-820e-dcae651a2761)
  )
  (label "D-1" (at 119.38 72.39 0)
    (effects (font (size 1.27 1.27)) (justify left bottom))
    (uuid ac9a3538-b17e-42e4-94e6-ca322e0f3cd5)
  )

  (symbol (lib_id "Connector:USB_B") (at 157.48 114.3 0) (unit 1)
    (in_bom yes) (on_board yes) (fields_autoplaced)
    (uuid 28fc3e03-09b8-4eec-87fa-a0e927f6337a)
    (property "Reference" "J6" (id 0) (at 157.48 101.6 0))
    (property "Value" "USB_B" (id 1) (at 157.48 104.14 0))
    (property "Footprint" "Connector_USB:USB_B_Lumberg_2411_02_Horizontal" (id 2) (at 161.29 115.57 0)
      (effects (font (size 1.27 1.27)) hide)
    )
    (property "Datasheet" " ~" (id 3) (at 161.29 115.57 0)
      (effects (font (size 1.27 1.27)) hide)
    )
    (pin "1" (uuid aa3ef057-512e-481f-a2b1-6971f5e253eb))
    (pin "2" (uuid 07120346-358b-4ade-ac64-a118e9078341))
    (pin "3" (uuid 7d2f42eb-7c20-45de-8865-53ccc0d56a33))
    (pin "4" (uuid 26162dde-ba99-4f7a-9055-306d8f4465fc))
    (pin "5" (uuid 765b7770-3385-45ba-966a-790365db53d6))
  )

  (symbol (lib_id "Connector:USB_B") (at 156.21 73.66 0) (unit 1)
    (in_bom yes) (on_board yes) (fields_autoplaced)
    (uuid 50edc693-5a89-442b-a7e6-e09be1674889)
    (property "Reference" "J3" (id 0) (at 156.21 60.96 0))
    (property "Value" "USB_B" (id 1) (at 156.21 63.5 0))
    (property "Footprint" "Connector_USB:USB_B_Lumberg_2411_02_Horizontal" (id 2) (at 160.02 74.93 0)
      (effects (font (size 1.27 1.27)) hide)
    )
    (property "Datasheet" " ~" (id 3) (at 160.02 74.93 0)
      (effects (font (size 1.27 1.27)) hide)
    )
    (pin "1" (uuid 4c8659bb-ae7e-4072-b1be-19b5560c2b9a))
    (pin "2" (uuid 99622537-e711-4f3f-a75c-ad925169ebaf))
    (pin "3" (uuid ca228a6c-ea85-4993-b72e-25807e67201a))
    (pin "4" (uuid 0b6b504d-c654-4dd9-a174-2018f0bb96a8))
    (pin "5" (uuid 14e4ef8c-0fe3-42fc-9f81-b198427ad223))
  )

  (symbol (lib_id "Connector_Generic:Conn_02x05_Odd_Even") (at 129.54 115.57 0) (unit 1)
    (in_bom yes) (on_board yes)
    (uuid 55176b1c-68f3-4ce4-8456-d4e06ae5ac99)
    (property "Reference" "J5" (id 0) (at 130.81 104.14 0))
    (property "Value" "Conn_02x05_Odd_Even" (id 1) (at 130.81 106.68 0))
    (property "Footprint" "Connector_PinHeader_2.54mm:PinHeader_2x05_P2.54mm_Vertical" (id 2) (at 129.54 115.57 0)
      (effects (font (size 1.27 1.27)) hide)
    )
    (property "Datasheet" "~" (id 3) (at 129.54 115.57 0)
      (effects (font (size 1.27 1.27)) hide)
    )
    (pin "1" (uuid 8ba47cc4-b5d8-453e-a453-3e4142275d7e))
    (pin "10" (uuid a54e5402-5b6c-4ab0-9017-04a2fad39694))
    (pin "2" (uuid 823f6240-e3cc-4bf9-88f6-8207e33b63d8))
    (pin "3" (uuid dc637c14-0c46-4afb-bc02-29b5d8ed03ee))
    (pin "4" (uuid d28f831e-f2a5-4035-8b62-13c03d15a7ea))
    (pin "5" (uuid 7ac49940-c3e4-4133-aab3-df8c9b0572d4))
    (pin "6" (uuid 386177fd-4e87-4e3e-9f1c-36f095af8ead))
    (pin "7" (uuid 06bdc108-8710-4924-8c72-600f87cf5cfa))
    (pin "8" (uuid c8260e30-1fb7-44a5-88f2-e91aafbcf42d))
    (pin "9" (uuid 3e4cd265-a6a4-49fd-a327-699b9a79671b))
  )

  (symbol (lib_id "Connector_Generic:Conn_01x02") (at 82.55 72.39 0) (unit 1)
    (in_bom yes) (on_board yes) (fields_autoplaced)
    (uuid 8e35a355-d2da-40aa-8cba-d1a00aa4ee02)
    (property "Reference" "J8" (id 0) (at 85.09 72.3899 0)
      (effects (font (size 1.27 1.27)) (justify left))
    )
    (property "Value" "Conn_01x02" (id 1) (at 85.09 74.9299 0)
      (effects (font (size 1.27 1.27)) (justify left))
    )
    (property "Footprint" "Connector_PinHeader_2.54mm:PinHeader_1x02_P2.54mm_Vertical" (id 2) (at 82.55 72.39 0)
      (effects (font (size 1.27 1.27)) hide)
    )
    (property "Datasheet" "~" (id 3) (at 82.55 72.39 0)
      (effects (font (size 1.27 1.27)) hide)
    )
    (pin "1" (uuid b85e413e-8ba2-4136-a1fe-cc6b0725faef))
    (pin "2" (uuid 58b88498-4af4-4d04-8172-32689da09c56))
  )

  (symbol (lib_id "Connector:USB_A") (at 105.41 114.3 0) (unit 1)
    (in_bom yes) (on_board yes) (fields_autoplaced)
    (uuid 962dcbc5-1862-457e-831f-9afd896ac459)
    (property "Reference" "J4" (id 0) (at 105.41 101.6 0))
    (property "Value" "USB_A" (id 1) (at 105.41 104.14 0))
    (property "Footprint" "Connector_USB:USB_A_Molex_67643_Horizontal" (id 2) (at 109.22 115.57 0)
      (effects (font (size 1.27 1.27)) hide)
    )
    (property "Datasheet" " ~" (id 3) (at 109.22 115.57 0)
      (effects (font (size 1.27 1.27)) hide)
    )
    (pin "1" (uuid 71baac63-1b36-487e-b1b9-22722f76f542))
    (pin "2" (uuid bba6f906-8687-4481-bf89-73b9894fe5a2))
    (pin "3" (uuid 1fb9f296-6c15-4487-884b-3cb570dbd509))
    (pin "4" (uuid ac80204d-e589-489b-a89e-84e55df2fd8e))
    (pin "5" (uuid b523472b-0008-4de5-9834-acfc1e80bcf1))
  )

  (symbol (lib_id "Connector_Generic:Conn_02x05_Odd_Even") (at 128.27 74.93 0) (unit 1)
    (in_bom yes) (on_board yes)
    (uuid bc0e1a9d-8c5d-4c88-aef9-7537d222c41c)
    (property "Reference" "J2" (id 0) (at 129.54 63.5 0))
    (property "Value" "Conn_02x05_Odd_Even" (id 1) (at 129.54 66.04 0))
    (property "Footprint" "Connector_PinHeader_2.54mm:PinHeader_2x05_P2.54mm_Vertical" (id 2) (at 128.27 74.93 0)
      (effects (font (size 1.27 1.27)) hide)
    )
    (property "Datasheet" "~" (id 3) (at 128.27 74.93 0)
      (effects (font (size 1.27 1.27)) hide)
    )
    (pin "1" (uuid c9350cb3-fad6-4b8d-ae9f-e87638bc5f7a))
    (pin "10" (uuid 5f6d7212-cd52-4ecc-915b-e8e5b848a299))
    (pin "2" (uuid 49dbd567-3e23-4e1f-8e9b-7599cfa20601))
    (pin "3" (uuid 600567b3-1dd0-481d-a153-5657fbf8db14))
    (pin "4" (uuid beba4049-cca8-45b0-abf1-2ce58c5f77d3))
    (pin "5" (uuid f8e7cfdb-f145-4b27-8b0a-7f356a26f417))
    (pin "6" (uuid 5f32e976-f899-4164-b535-32dd09b01f25))
    (pin "7" (uuid 58a89cfd-5ed0-4c49-a8d2-5855857278b0))
    (pin "8" (uuid 6f944bce-7cee-44a2-9581-e3b28471d9ec))
    (pin "9" (uuid 7bd35ff3-2ecb-46a7-a541-dd43d6933750))
  )

  (symbol (lib_id "Connector:USB_A") (at 104.14 73.66 0) (unit 1)
    (in_bom yes) (on_board yes) (fields_autoplaced)
    (uuid cae00301-50f2-4374-aba3-e177835a4e36)
    (property "Reference" "J1" (id 0) (at 104.14 60.96 0))
    (property "Value" "USB_A" (id 1) (at 104.14 63.5 0))
    (property "Footprint" "Connector_USB:USB_A_Molex_67643_Horizontal" (id 2) (at 107.95 74.93 0)
      (effects (font (size 1.27 1.27)) hide)
    )
    (property "Datasheet" " ~" (id 3) (at 107.95 74.93 0)
      (effects (font (size 1.27 1.27)) hide)
    )
    (pin "1" (uuid 1c28a4af-b8d7-4f05-91db-ed327f2df944))
    (pin "2" (uuid 518679e9-71a6-4878-ab74-0584713ace9a))
    (pin "3" (uuid 13ebb01d-9a0b-4b90-ad9e-42bf71e2a9e8))
    (pin "4" (uuid bbaf8529-a789-46bb-8a7c-b973d0d2749e))
    (pin "5" (uuid 5f202f12-e151-4ccc-bbfb-c601f5176755))
  )

  (symbol (lib_id "Connector_Generic:Conn_01x02") (at 81.28 113.03 0) (unit 1)
    (in_bom yes) (on_board yes) (fields_autoplaced)
    (uuid eee44660-b40f-47ff-ae61-57948e758289)
    (property "Reference" "J7" (id 0) (at 83.82 113.0299 0)
      (effects (font (size 1.27 1.27)) (justify left))
    )
    (property "Value" "Conn_01x02" (id 1) (at 83.82 115.5699 0)
      (effects (font (size 1.27 1.27)) (justify left))
    )
    (property "Footprint" "Connector_PinHeader_2.54mm:PinHeader_1x02_P2.54mm_Vertical" (id 2) (at 81.28 113.03 0)
      (effects (font (size 1.27 1.27)) hide)
    )
    (property "Datasheet" "~" (id 3) (at 81.28 113.03 0)
      (effects (font (size 1.27 1.27)) hide)
    )
    (pin "1" (uuid 00ed4a5c-dd0e-43ea-a087-53afa16c578a))
    (pin "2" (uuid 2dc7e18e-2920-40ac-bfb8-4ef8655965a3))
  )

  (sheet_instances
    (path "/" (page "1"))
  )

  (symbol_instances
    (path "/cae00301-50f2-4374-aba3-e177835a4e36"
      (reference "J1") (unit 1) (value "USB_A") (footprint "Connector_USB:USB_A_Molex_67643_Horizontal")
    )
    (path "/bc0e1a9d-8c5d-4c88-aef9-7537d222c41c"
      (reference "J2") (unit 1) (value "Conn_02x05_Odd_Even") (footprint "Connector_PinHeader_2.54mm:PinHeader_2x05_P2.54mm_Vertical")
    )
    (path "/50edc693-5a89-442b-a7e6-e09be1674889"
      (reference "J3") (unit 1) (value "USB_B") (footprint "Connector_USB:USB_B_Lumberg_2411_02_Horizontal")
    )
    (path "/962dcbc5-1862-457e-831f-9afd896ac459"
      (reference "J4") (unit 1) (value "USB_A") (footprint "Connector_USB:USB_A_Molex_67643_Horizontal")
    )
    (path "/55176b1c-68f3-4ce4-8456-d4e06ae5ac99"
      (reference "J5") (unit 1) (value "Conn_02x05_Odd_Even") (footprint "Connector_PinHeader_2.54mm:PinHeader_2x05_P2.54mm_Vertical")
    )
    (path "/28fc3e03-09b8-4eec-87fa-a0e927f6337a"
      (reference "J6") (unit 1) (value "USB_B") (footprint "Connector_USB:USB_B_Lumberg_2411_02_Horizontal")
    )
    (path "/eee44660-b40f-47ff-ae61-57948e758289"
      (reference "J7") (unit 1) (value "Conn_01x02") (footprint "Connector_PinHeader_2.54mm:PinHeader_1x02_P2.54mm_Vertical")
    )
    (path "/8e35a355-d2da-40aa-8cba-d1a00aa4ee02"
      (reference "J8") (unit 1) (value "Conn_01x02") (footprint "Connector_PinHeader_2.54mm:PinHeader_1x02_P2.54mm_Vertical")
    )
  )
)
